…
### Exercise 6

``` r
nobel_living_science %>% 
  filter(born_and_won_us=="Born in Other, Won in USA") %>%
  count(born_country, sort=TRUE)
```

    ## # A tibble: 21 x 2
    ##    born_country       n
    ##    <chr>          <int>
    ##  1 Germany            7
    ##  2 United Kingdom     7
    ##  3 China              5
    ##  4 Canada             4
    ##  5 Japan              3
    ##  6 Australia          2
    ##  7 Israel             2
    ##  8 Norway             2
    ##  9 Austria            1
    ## 10 Finland            1
    ## # ... with 11 more rows
…
